{
    "create_tb":"create table if not exists {} ( {} ) ",
    "select":"select * from {}",
    "insert":"insert into {} ( {} ) values ( {} )",
    "update":"update {} set {}  where {}",
    "delete":"delete from {} where {} ",
    "datosCasa":"ID_CASA INTEGER PRIMARY KEY AUTOINCREMENT, PISOS INTEGER NOT NULL, HABITACIONES INTEGER NOT NULL, COLOR TEXT, DIRECCION TEXT NOT NULL, PROPIETARIO TEXT NOT NULL",
    "columnasCasa":"PISOS, HABITACIONES, COLOR, DIRECCION, PROPIETARIO",
    "datosTelevisor":"ID_TELEVISOR INTEGER PRIMARY KEY AUTOINCREMENT, ID_CASA INTEGER NOT NULL, MARCA TEXT NOT NULL, MODELO TEXT NOT NULL, PRECIO REAL NOT NULL, TIPO_PANTALLA TEXT NOT NULL, SISTEMA_OPERATIVO TEXT NOT NULL, CALIDAD TEXT NOT NULL, FOREIGN KEY (ID_CASA) REFERENCES CASA(ID_CASA)",
    "columnasTelevisor":"ID_CASA, MARCA, MODELO, PRECIO, TIPO_PANTALLA, SISTEMA_OPERATIVO, CALIDAD"
}